[
  {
    "label": "Select Gaming Skills",
    "value": -1
  },
  {
    "label": "Accuracy",
    "value": 0
  },
  {
    "label": "Adaptability",
    "value": 1
  },
  {
    "label": "Aim Tracking",
    "value": 2
  },
  {
    "label": "Clutch",
    "value": 3
  },
  {
    "label": "Communication",
    "value": 4
  },
  {
    "label": "Coordination",
    "value": 5
  },
  {
    "label": "Dedication",
    "value": 6
  },
  {
    "label": "Flick Speed",
    "value": 7
  },
  {
    "label": "Gunskill",
    "value": 8
  },
  {
    "label": "Intelligence",
    "value": 9
  },
  {
    "label": "Memory",
    "value": 10
  },
  {
    "label": "Objective-focused",
    "value": 11
  },
  {
    "label": "Pattern Recognition",
    "value": 12
  },
  {
    "label": "Problem Solving",
    "value": 13
  },
  {
    "label": "Reaction Time",
    "value": 14
  },
  {
    "label": "Slayer",
    "value": 15
  },
  {
    "label": "Team Leadership",
    "value": 16
  },
  {
    "label": "Team loyalty",
    "value": 17
  },
  {
    "label": "Teamwork",
    "value": 18
  },
  {
    "label": "Work Ethic",
    "value": 19
  }
]
